{
    "data": {
        "relationships": {
            "comments": {
                "meta": {
                    "cursor": "CmEKEQoEZGF0ZRIJCOz5jqe1zOYCEkhqEXN-dmlydXN0b3RhbGNsb3VkcjMLEglJcEFkZHJlc3MiBzguOC44LjgMCxIHQ29tbWVudCIQOC44LjguOC05MGQxOGQ3YwwYACAB"
                },
                "data": [
                    {
                        "type": "comment",
                        "id": "i-8.8.8.8-05fc97ee"
                    },
                    {
                        "type": "comment",
                        "id": "i-8.8.8.8-e70124f5"
                    },
                    {
                        "type": "comment",
                        "id": "i-8.8.8.8-38b58d25"
                    },
                    {
                        "type": "comment",
                        "id": "i-8.8.8.8-04256439"
                    },
                    {
                        "type": "comment",
                        "id": "i-8.8.8.8-8741359d"
                    },
                    {
                        "type": "comment",
                        "id": "i-8.8.8.8-18475f78"
                    },
                    {
                        "type": "comment",
                        "id": "i-8.8.8.8-97743e3d"
                    },
                    {
                        "type": "comment",
                        "id": "i-8.8.8.8-a1d17063"
                    },
                    {
                        "type": "comment",
                        "id": "i-8.8.8.8-5507228b"
                    },
                    {
                        "type": "comment",
                        "id": "i-8.8.8.8-f834795f"
                    },
                    {
                        "type": "comment",
                        "id": "i-8.8.8.8-dbdd618a"
                    },
                    {
                        "type": "comment",
                        "id": "i-8.8.8.8-c677057e"
                    },
                    {
                        "type": "comment",
                        "id": "i-8.8.8.8-8691e57b"
                    },
                    {
                        "type": "comment",
                        "id": "i-8.8.8.8-0c1b0c86"
                    },
                    {
                        "type": "comment",
                        "id": "i-8.8.8.8-ea64a258"
                    },
                    {
                        "type": "comment",
                        "id": "i-8.8.8.8-7be884f5"
                    },
                    {
                        "type": "comment",
                        "id": "i-8.8.8.8-9d95b44b"
                    },
                    {
                        "type": "comment",
                        "id": "i-8.8.8.8-918a896d"
                    },
                    {
                        "type": "comment",
                        "id": "i-8.8.8.8-0c3ffdd1"
                    },
                    {
                        "type": "comment",
                        "id": "i-8.8.8.8-90d18d7c"
                    }
                ],
                "links": {
                    "self": "https://www.virustotal.com/api/v3/ip_addresses/8.8.8.8/relationships/comments?limit=20",
                    "related": "https://www.virustotal.com/api/v3/ip_addresses/8.8.8.8/comments",
                    "next": "https://www.virustotal.com/api/v3/ip_addresses/8.8.8.8/relationships/comments?cursor=CmEKEQoEZGF0ZRIJCOz5jqe1zOYCEkhqEXN-dmlydXN0b3RhbGNsb3VkcjMLEglJcEFkZHJlc3MiBzguOC44LjgMCxIHQ29tbWVudCIQOC44LjguOC05MGQxOGQ3YwwYACAB&limit=20"
                }
            }
        },
        "attributes": {
            "regional_internet_registry": "ARIN",
            "jarm": "29d3fd00029d29d00042d43d00041d598ac0c1012db967bb1ad0ff2491b3ae",
            "network": "8.8.8.0/24",
            "last_https_certificate_date": 1623668765,
            "tags": [],
            "country": "US",
            "as_owner": "GOOGLE",
            "last_analysis_stats": {
                "harmless": 75,
                "malicious": 1,
                "suspicious": 0,
                "undetected": 9,
                "timeout": 0
            },
            "asn": 15169,
            "whois_date": 1612674509,
            "last_analysis_results": {
                "CMC Threat Intelligence": {
                    "category": "harmless",
                    "result": "clean",
                    "method": "blacklist",
                    "engine_name": "CMC Threat Intelligence"
                },
                "CLEAN MX": {
                    "category": "harmless",
                    "result": "clean",
                    "method": "blacklist",
                    "engine_name": "CLEAN MX"
                },
                "DNS8": {
                    "category": "harmless",
                    "result": "clean",
                    "method": "blacklist",
                    "engine_name": "DNS8"
                },
                "MalSilo": {
                    "category": "harmless",
                    "result": "clean",
                    "method": "blacklist",
                    "engine_name": "MalSilo"
                },
                "Snort IP sample list": {
                    "category": "harmless",
                    "result": "clean",
                    "method": "blacklist",
                    "engine_name": "Snort IP sample list"
                },
                "AICC (MONITORAPP)": {
                    "category": "harmless",
                    "result": "clean",
                    "method": "blacklist",
                    "engine_name": "AICC (MONITORAPP)"
                },
                "benkow.cc": {
                    "category": "harmless",
                    "result": "clean",
                    "method": "blacklist",
                    "engine_name": "benkow.cc"
                },
                "VX Vault": {
                    "category": "harmless",
                    "result": "clean",
                    "method": "blacklist",
                    "engine_name": "VX Vault"
                },
                "securolytics": {
                    "category": "harmless",
                    "result": "clean",
                    "method": "blacklist",
                    "engine_name": "securolytics"
                },
                "MalwarePatrol": {
                    "category": "harmless",
                    "result": "clean",
                    "method": "blacklist",
                    "engine_name": "MalwarePatrol"
                },
                "Armis": {
                    "category": "harmless",
                    "result": "clean",
                    "method": "blacklist",
                    "engine_name": "Armis"
                },
                "MalBeacon": {
                    "category": "harmless",
                    "result": "clean",
                    "method": "blacklist",
                    "engine_name": "MalBeacon"
                },
                "Comodo Valkyrie Verdict": {
                    "category": "malicious",
                    "result": "malware",
                    "method": "blacklist",
                    "engine_name": "Comodo Valkyrie Verdict"
                },
                "PhishLabs": {
                    "category": "undetected",
                    "result": "unrated",
                    "method": "blacklist",
                    "engine_name": "PhishLabs"
                },
                "EmergingThreats": {
                    "category": "harmless",
                    "result": "clean",
                    "method": "blacklist",
                    "engine_name": "EmergingThreats"
                },
                "Forcepoint ThreatSeeker": {
                    "category": "harmless",
                    "result": "clean",
                    "method": "blacklist",
                    "engine_name": "Forcepoint ThreatSeeker"
                },
                "K7AntiVirus": {
                    "category": "harmless",
                    "result": "clean",
                    "method": "blacklist",
                    "engine_name": "K7AntiVirus"
                },
                "Nucleon": {
                    "category": "harmless",
                    "result": "clean",
                    "method": "blacklist",
                    "engine_name": "Nucleon"
                },
                "Virusdie External Site Scan": {
                    "category": "harmless",
                    "result": "clean",
                    "method": "blacklist",
                    "engine_name": "Virusdie External Site Scan"
                },
                "CINS Army": {
                    "category": "harmless",
                    "result": "clean",
                    "method": "blacklist",
                    "engine_name": "CINS Army"
                },
                "Spamhaus": {
                    "category": "harmless",
                    "result": "clean",
                    "method": "blacklist",
                    "engine_name": "Spamhaus"
                },
                "Quttera": {
                    "category": "harmless",
                    "result": "clean",
                    "method": "blacklist",
                    "engine_name": "Quttera"
                },
                "AegisLab WebGuard": {
                    "category": "harmless",
                    "result": "clean",
                    "method": "blacklist",
                    "engine_name": "AegisLab WebGuard"
                },
                "SafeToOpen": {
                    "category": "undetected",
                    "result": "unrated",
                    "method": "blacklist",
                    "engine_name": "SafeToOpen"
                },
                "MalwareDomainList": {
                    "category": "harmless",
                    "result": "clean",
                    "method": "blacklist",
                    "engine_name": "MalwareDomainList"
                },
                "CyberCrime": {
                    "category": "harmless",
                    "result": "clean",
                    "method": "blacklist",
                    "engine_name": "CyberCrime"
                },
                "Lumu": {
                    "category": "undetected",
                    "result": "unrated",
                    "method": "blacklist",
                    "engine_name": "Lumu"
                },
                "Google Safebrowsing": {
                    "category": "harmless",
                    "result": "clean",
                    "method": "blacklist",
                    "engine_name": "Google Safebrowsing"
                },
                "Kaspersky": {
                    "category": "undetected",
                    "result": "unrated",
                    "method": "blacklist",
                    "engine_name": "Kaspersky"
                },
                "BitDefender": {
                    "category": "harmless",
                    "result": "clean",
                    "method": "blacklist",
                    "engine_name": "BitDefender"
                },
                "Emsisoft": {
                    "category": "harmless",
                    "result": "clean",
                    "method": "blacklist",
                    "engine_name": "Emsisoft"
                },
                "GreenSnow": {
                    "category": "harmless",
                    "result": "clean",
                    "method": "blacklist",
                    "engine_name": "GreenSnow"
                },
                "Quick Heal": {
                    "category": "harmless",
                    "result": "clean",
                    "method": "blacklist",
                    "engine_name": "Quick Heal"
                },
                "G-Data": {
                    "category": "harmless",
                    "result": "clean",
                    "method": "blacklist",
                    "engine_name": "G-Data"
                },
                "Segasec": {
                    "category": "harmless",
                    "result": "clean",
                    "method": "blacklist",
                    "engine_name": "Segasec"
                },
                "OpenPhish": {
                    "category": "harmless",
                    "result": "clean",
                    "method": "blacklist",
                    "engine_name": "OpenPhish"
                },
                "Sucuri SiteCheck": {
                    "category": "harmless",
                    "result": "clean",
                    "method": "blacklist",
                    "engine_name": "Sucuri SiteCheck"
                },
                "AutoShun": {
                    "category": "undetected",
                    "result": "unrated",
                    "method": "blacklist",
                    "engine_name": "AutoShun"
                },
                "Trustwave": {
                    "category": "harmless",
                    "result": "clean",
                    "method": "blacklist",
                    "engine_name": "Trustwave"
                },
                "Web Security Guard": {
                    "category": "harmless",
                    "result": "clean",
                    "method": "blacklist",
                    "engine_name": "Web Security Guard"
                },
                "CyRadar": {
                    "category": "harmless",
                    "result": "clean",
                    "method": "blacklist",
                    "engine_name": "CyRadar"
                },
                "desenmascara.me": {
                    "category": "harmless",
                    "result": "clean",
                    "method": "blacklist",
                    "engine_name": "desenmascara.me"
                },
                "ADMINUSLabs": {
                    "category": "harmless",
                    "result": "clean",
                    "method": "blacklist",
                    "engine_name": "ADMINUSLabs"
                },
                "Scantitan": {
                    "category": "harmless",
                    "result": "clean",
                    "method": "blacklist",
                    "engine_name": "Scantitan"
                },
                "IPsum": {
                    "category": "harmless",
                    "result": "clean",
                    "method": "blacklist",
                    "engine_name": "IPsum"
                },
                "Dr.Web": {
                    "category": "harmless",
                    "result": "clean",
                    "method": "blacklist",
                    "engine_name": "Dr.Web"
                },
                "AlienVault": {
                    "category": "harmless",
                    "result": "clean",
                    "method": "blacklist",
                    "engine_name": "AlienVault"
                },
                "Sophos": {
                    "category": "harmless",
                    "result": "clean",
                    "method": "blacklist",
                    "engine_name": "Sophos"
                },
                "malwares.com URL checker": {
                    "category": "harmless",
                    "result": "clean",
                    "method": "blacklist",
                    "engine_name": "malwares.com URL checker"
                },
                "Phishtank": {
                    "category": "harmless",
                    "result": "clean",
                    "method": "blacklist",
                    "engine_name": "Phishtank"
                },
                "EonScope": {
                    "category": "harmless",
                    "result": "clean",
                    "method": "blacklist",
                    "engine_name": "EonScope"
                },
                "Malwared": {
                    "category": "harmless",
                    "result": "clean",
                    "method": "blacklist",
                    "engine_name": "Malwared"
                },
                "Avira": {
                    "category": "harmless",
                    "result": "clean",
                    "method": "blacklist",
                    "engine_name": "Avira"
                },
                "NotMining": {
                    "category": "undetected",
                    "result": "unrated",
                    "method": "blacklist",
                    "engine_name": "NotMining"
                },
                "Cyan": {
                    "category": "undetected",
                    "result": "unrated",
                    "method": "blacklist",
                    "engine_name": "Cyan"
                },
                "Antiy-AVL": {
                    "category": "harmless",
                    "result": "clean",
                    "method": "blacklist",
                    "engine_name": "Antiy-AVL"
                },
                "SCUMWARE.org": {
                    "category": "harmless",
                    "result": "clean",
                    "method": "blacklist",
                    "engine_name": "SCUMWARE.org"
                },
                "Spam404": {
                    "category": "harmless",
                    "result": "clean",
                    "method": "blacklist",
                    "engine_name": "Spam404"
                },
                "ESTsecurity-Threat Inside": {
                    "category": "harmless",
                    "result": "clean",
                    "method": "blacklist",
                    "engine_name": "ESTsecurity-Threat Inside"
                },
                "Certego": {
                    "category": "harmless",
                    "result": "clean",
                    "method": "blacklist",
                    "engine_name": "Certego"
                },
                "Yandex Safebrowsing": {
                    "category": "harmless",
                    "result": "clean",
                    "method": "blacklist",
                    "engine_name": "Yandex Safebrowsing"
                },
                "ESET": {
                    "category": "harmless",
                    "result": "clean",
                    "method": "blacklist",
                    "engine_name": "ESET"
                },
                "Threatsourcing": {
                    "category": "harmless",
                    "result": "clean",
                    "method": "blacklist",
                    "engine_name": "Threatsourcing"
                },
                "URLhaus": {
                    "category": "harmless",
                    "result": "clean",
                    "method": "blacklist",
                    "engine_name": "URLhaus"
                },
                "SecureBrain": {
                    "category": "harmless",
                    "result": "clean",
                    "method": "blacklist",
                    "engine_name": "SecureBrain"
                },
                "Webroot": {
                    "category": "harmless",
                    "result": "clean",
                    "method": "blacklist",
                    "engine_name": "Webroot"
                },
                "PREBYTES": {
                    "category": "harmless",
                    "result": "clean",
                    "method": "blacklist",
                    "engine_name": "PREBYTES"
                },
                "StopForumSpam": {
                    "category": "harmless",
                    "result": "clean",
                    "method": "blacklist",
                    "engine_name": "StopForumSpam"
                },
                "Blueliv": {
                    "category": "harmless",
                    "result": "clean",
                    "method": "blacklist",
                    "engine_name": "Blueliv"
                },
                "Hoplite Industries": {
                    "category": "harmless",
                    "result": "clean",
                    "method": "blacklist",
                    "engine_name": "Hoplite Industries"
                },
                "Netcraft": {
                    "category": "undetected",
                    "result": "unrated",
                    "method": "blacklist",
                    "engine_name": "Netcraft"
                },
                "CRDF": {
                    "category": "harmless",
                    "result": "clean",
                    "method": "blacklist",
                    "engine_name": "CRDF"
                },
                "ThreatHive": {
                    "category": "harmless",
                    "result": "clean",
                    "method": "blacklist",
                    "engine_name": "ThreatHive"
                },
                "BADWARE.INFO": {
                    "category": "harmless",
                    "result": "clean",
                    "method": "blacklist",
                    "engine_name": "BADWARE.INFO"
                },
                "FraudScore": {
                    "category": "harmless",
                    "result": "clean",
                    "method": "blacklist",
                    "engine_name": "FraudScore"
                },
                "Fortinet": {
                    "category": "harmless",
                    "result": "clean",
                    "method": "blacklist",
                    "engine_name": "Fortinet"
                },
                "Tencent": {
                    "category": "harmless",
                    "result": "clean",
                    "method": "blacklist",
                    "engine_name": "Tencent"
                },
                "StopBadware": {
                    "category": "undetected",
                    "result": "unrated",
                    "method": "blacklist",
                    "engine_name": "StopBadware"
                },
                "zvelo": {
                    "category": "harmless",
                    "result": "clean",
                    "method": "blacklist",
                    "engine_name": "zvelo"
                },
                "Bfore.Ai PreCrime": {
                    "category": "harmless",
                    "result": "clean",
                    "method": "blacklist",
                    "engine_name": "Bfore.Ai PreCrime"
                },
                "ZeroCERT": {
                    "category": "harmless",
                    "result": "clean",
                    "method": "blacklist",
                    "engine_name": "ZeroCERT"
                },
                "Baidu-International": {
                    "category": "harmless",
                    "result": "clean",
                    "method": "blacklist",
                    "engine_name": "Baidu-International"
                },
                "Phishing Database": {
                    "category": "harmless",
                    "result": "clean",
                    "method": "blacklist",
                    "engine_name": "Phishing Database"
                },
                "alphaMountain.ai": {
                    "category": "harmless",
                    "result": "clean",
                    "method": "blacklist",
                    "engine_name": "alphaMountain.ai"
                }
            },
            "reputation": 303,
            "last_modification_date": "Jun 14, 2021 at 12:21:36 PM ",
            "total_votes": {
                "harmless": 51,
                "malicious": 11
            },
            "last_https_certificate": {
                "public_key": {
                    "rsa": {
                        "key_size": 2048,
                        "modulus": "00a4dcf0f7eba9799e5dccb0bcd135ad650988ef4b48655254ef11797ef77a917f5056c82b44facc75d24acb117ef319a9d298a8acf828c3c92baec3b3e02e50605a3943b1120befed4744a592cab0056794140af79606788f8989096452447f70a38988fa19aa898bc7d9d4e2fde9e669e4f440d5474a160ab90e36fd2070f14ff0b427ae66ff969b02bc4fc3c295e4a49198283f70ab8fd5306bac47b57ffa256ce1a9ab4a4e1328fc8ae83c5f88411053282ae2f43ca2f7039d4ce50c4b341735824a55f37c36db3841d9a394fa496eadd688872e42520e48f3d0d48287c2ac68fc28014d98a2ffd50878f733bf0808fa5cf33bc282570c96b95330ae1202cf",
                        "exponent": "010001"
                    },
                    "algorithm": "RSA"
                },
                "thumbprint_sha256": "8dfc0211117bde0aef20f54c517518d58b67cb75efd34229dac8cb193808deb1",
                "tags": [],
                "signature_algorithm": "sha256RSA",
                "subject": {
                    "CN": "dns.google",
                    "C": "US",
                    "L": "Mountain View",
                    "O": "Google LLC",
                    "ST": "California"
                },
                "validity": {
                    "not_after": "2021-08-09 04:06:13",
                    "not_before": "2021-05-17 04:06:14"
                },
                "version": "V3",
                "extensions": {
                    "certificate_policies": [
                        "2.23.140.1.2.2",
                        "1.3.6.1.4.1.11129.2.5.3"
                    ],
                    "extended_key_usage": [
                        "serverAuth"
                    ],
                    "tags": [],
                    "subject_alternative_name": [
                        "dns.google",
                        "dns.google.com",
                        "*.dns.google.com",
                        "8888.google",
                        "dns64.dns.google"
                    ],
                    "authority_key_identifier": {
                        "keyid": "98d1f86e10ebcf9bec609f18901ba0eb7d09fd2b"
                    },
                    "ca_information_access": {
                        "CA Issuers": "http://pki.goog/gsr2/GTS1O1.crt",
                        "OCSP": "http://ocsp.pki.goog/gts1o1core"
                    },
                    "subject_key_identifier": "b4db87edb92a6c5b651193c80f28d32235759e83",
                    "crl_distribution_points": [
                        "http://crl.pki.goog/GTS1O1core.crl"
                    ],
                    "key_usage": [
                        "ff"
                    ],
                    "1.3.6.1.4.1.11129.2.4.2": "0481f200f00077004494652eb0eeceafc44007d8a8fe28c0dae682bed8cb31b5",
                    "CA": true
                },
                "cert_signature": {
                    "signature_algorithm": "sha256RSA",
                    "signature": "1b59da067a0de8ed15d773fbb15a1db26c22a6f6dd2caf1af99aed7d3d3e2bc5574788dd0d39c9e1a21be9a1b47fd5864bd86a7546d41e6c2bb6b11dc31e37ba72cf63d83818c302d0b10dd1114a126db664296ecd687a4c65c9b6860e14ef0c11fd3d363585d322d38ea85019f8d1dc385bc67ed15ea930b7109664e6ef2476ce38cedaa3294cf300ddda3696f0b6ecd70b997c4f7935297c7a0d1a7815ea166dc8daf795d7db0bb3b8d172b3d3361cf0f525d7d4854871479bb3963a1845468b030ff3b856637b719b4bb59bfeadebb10512c2bab82eaa0bed7906296eacfc067bdf67fe642777c695fe6affda896418ffcd21a7fd6338327d2f137177578a"
                },
                "serial_number": "1de558899cc0a103050000000087da3a",
                "thumbprint": "4dad788950b2838343a26323be3c54d4f768949f",
                "issuer": {
                    "C": "US",
                    "CN": "GTS CA 1O1",
                    "O": "Google Trust Services"
                },
                "size": 1574
            },
            "continent": "NA",
            "whois": ""
        },
        "type": "ip_address",
        "id": "8.8.8.8",
        "links": {
            "self": "https://www.virustotal.com/api/v3/ip_addresses/8.8.8.8"
        }
    }
}